{"instances":[{"_id":"57e4e15141af63d27ee9b9f5","name":"54.67.59.132","orgId":"ca8a9158-0426-4a14-9401-a5539a9dda87","orgName":"RL","bgId":"f8075f04-d224-4940-afea-967b1b8dc951","bgName":"Product","projectId":"895990bc-2dc8-43bf-ab65-d75d8e5f5f07","projectName":"Catalyst","envId":"ffcee46d-3faf-4dd4-a63d-9fcdcbd505dd","environmentName":"RL_EVL","platformId":"54.67.59.132","instanceIP":"54.67.59.132","instanceState":"running","bootStrapStatus":"success","catUser":"Admin2","__v":0,"isDeleted":false,"tasks":[],"instanceCreatedOn":"2016-09-23T08:01:21.882Z","taskIds":[],"chefClientExecutionIds":[],"actionLogs":[{"_id":"57e4e15141af63d27ee9b9f6","actionData":{"runlist":[]},"timeStarted":1474617681894,"user":"Admin2","success":true,"completed":true,"name":"Bootstrap","type":1,"timeEnded":1474617785129}],"serviceIds":[],"docker":{"dockerEngineStatus":"success","dockerEngineUrl":""},"blueprintData":{"blueprintName":"54.67.59.132","templateId":"chef_import","iconPath":"../private/img/templateicons/chef_import.png","templateComponents":[]},"credentials":{"username":"ubuntu","pemFileLocation":"/mnt/jenkins/workspace/Supercatalyst_Upgrade/server/catdata/catalyst/instance-pemfiles/d104a02b-868b-469f-ad9c-943ba9e17b3d"},"software":[],"chef":{"serverId":"6a178a0f-8c87-4f87-962d-04e508f1c095","chefNodeName":"54.67.59.132"},"hardware":{"platform":"ubuntu","platformVersion":"14.04","architecture":"x86_64","os":"linux","memory":{"total":"2048496kB","free":"796552kB"}},"users":["Admin2"],"appUrls":[],"attributes":[],"runlist":[]},{"_id":"57dfd8352ddd11df6b23f45b","name":"52.53.249.244","orgId":"ca8a9158-0426-4a14-9401-a5539a9dda87","orgName":"RL","bgId":"f8075f04-d224-4940-afea-967b1b8dc951","bgName":"Product","projectId":"895990bc-2dc8-43bf-ab65-d75d8e5f5f07","projectName":"Catalyst","envId":"ffcee46d-3faf-4dd4-a63d-9fcdcbd505dd","environmentName":"RL_EVL","platformId":"52.53.249.244","instanceIP":"52.53.249.244","instanceState":"running","bootStrapStatus":"success","catUser":"Admin2","__v":0,"isDeleted":false,"tasks":[],"instanceCreatedOn":"2016-09-19T12:21:09.532Z","taskIds":[],"chefClientExecutionIds":[],"actionLogs":[{"_id":"57dfd8352ddd11df6b23f45c","actionData":{"runlist":[]},"timeStarted":1474287669540,"user":"Admin2","success":true,"completed":true,"name":"Bootstrap","type":1,"timeEnded":1474287738696}],"serviceIds":[],"blueprintData":{"blueprintName":"52.53.249.244","templateId":"chef_import","iconPath":"../private/img/templateicons/chef_import.png","templateComponents":[]},"credentials":{"username":"ubuntu","pemFileLocation":"/mnt/jenkins/workspace/Supercatalyst_Upgrade/server/catdata/catalyst/instance-pemfiles/5ddd35b6-ef7f-41de-a665-2e118173e532"},"software":[],"chef":{"serverId":"6a178a0f-8c87-4f87-962d-04e508f1c095","chefNodeName":"52.53.249.244"},"hardware":{"platform":"ubuntu","platformVersion":"14.04","architecture":"x86_64","os":"linux","memory":{"total":"2048484kB","free":"1393832kB"}},"users":["Admin2"],"appUrls":[],"attributes":[],"runlist":[]},{"_id":"57df8707bddbbdf8769df1c5","name":"Telemetry","orgId":"ca8a9158-0426-4a14-9401-a5539a9dda87","orgName":"RL","bgId":"f8075f04-d224-4940-afea-967b1b8dc951","bgName":"Product","projectId":"895990bc-2dc8-43bf-ab65-d75d8e5f5f07","projectName":"Catalyst","envId":"ffcee46d-3faf-4dd4-a63d-9fcdcbd505dd","environmentName":"RL_EVL","providerId":"55c193992b4997ef060e53d0","providerType":"aws","keyPairId":"5715ca34f2b0aa28688d8c2d","region":"us-west-1","chefNodeName":"i-d33be444","platformId":"i-d33be444","instanceIP":null,"instanceState":"running","bootStrapStatus":"failed","instanceType":"t2.micro","catUser":"Admin2","vpcId":"vpc-bd815ad8","subnetId":"subnet-3179fc54","privateIpAddress":"10.0.1.121","__v":0,"cost":{"symbol":"$","currency":"USD","aggregateInstanceCost":150.1458010299993},"hostName":"ip-10-0-1-121.us-west-1.compute.internal","isDeleted":false,"tasks":[],"instanceCreatedOn":"2016-09-19T06:34:47.095Z","taskIds":[],"chefClientExecutionIds":[],"actionLogs":[{"_id":"57df8707bddbbdf8769df1c6","actionData":{"runlist":["recipe[apache2]"]},"timeStarted":1474266887104,"user":"Admin2","success":false,"completed":true,"name":"Bootstrap","type":1,"timeEnded":1474267207211},{"_id":"57df8813bddbbdf8769df324","actionData":{"runlist":["recipe[apache2]","recipe[java8]"]},"timeStarted":1474267155161,"user":"Admin2","success":true,"completed":true,"name":"Chef-Client-Run","type":2,"timeEnded":1474267319572},{"_id":"57df8c75bddbbdf8769e2949","actionData":{"runlist":["recipe[apache2]","recipe[git]"]},"timeStarted":1474268277874,"user":"Admin2","success":true,"completed":true,"name":"Chef-Client-Run","type":2,"timeEnded":1474268299708},{"_id":"57df954cbddbbdf8769e38b1","actionData":{"runlist":["recipe[apache2]","recipe[unzip]"]},"timeStarted":1474270540525,"user":"Admin2","success":true,"completed":true,"name":"Chef-Client-Run","type":2,"timeEnded":1474270559135}],"serviceIds":[],"docker":{"dockerEngineStatus":"","dockerEngineUrl":""},"blueprintData":{"blueprintId":"57df7492bddbbdf8769dab30","blueprintName":"Telemetry","templateId":"CustomTemplate","templateType":"chef","iconPath":"/d4dMasters/image/e13165ed-dbcd-4d86-aa83-abf23f7c5f48__templatesicon__Custom_temp.jpg","templateComponents":[]},"credentials":{"username":"ubuntu","pemFileLocation":"/mnt/jenkins/workspace/SC_OpenSource_Backup/server/catdata/catalyst/instance-pemfiles/5715ca34f2b0aa28688d8c2d"},"software":[],"chef":{"serverId":"6a178a0f-8c87-4f87-962d-04e508f1c095","chefNodeName":"i-d33be444"},"hardware":{"platform":"unknown","platformVersion":"unknown","architecture":"unknown","os":"linux","memory":{"total":"unknown","free":"unknown"}},"users":[],"appUrls":[],"attributes":[],"runlist":["recipe[apache2]","recipe[unzip]"]},{"_id":"57da71afbddbbdf87698835f","name":"54.67.65.90","orgId":"ca8a9158-0426-4a14-9401-a5539a9dda87","orgName":"RL","bgId":"f8075f04-d224-4940-afea-967b1b8dc951","bgName":"Product","projectId":"895990bc-2dc8-43bf-ab65-d75d8e5f5f07","projectName":"Catalyst","envId":"ffcee46d-3faf-4dd4-a63d-9fcdcbd505dd","environmentName":"RL_EVL","platformId":"54.67.65.90","instanceIP":"54.67.65.90","instanceState":"running","bootStrapStatus":"failed","catUser":"Admin2","__v":0,"isDeleted":false,"tasks":[],"instanceCreatedOn":"2016-09-15T10:02:23.770Z","taskIds":[],"chefClientExecutionIds":[],"actionLogs":[{"_id":"57da71afbddbbdf876988360","actionData":{"runlist":[]},"timeStarted":1473933743781,"user":"Admin2","success":false,"completed":true,"name":"Bootstrap","type":1,"timeEnded":1473933818125},{"_id":"57da7246bddbbdf87698844c","actionData":{"runlist":["recipe[password_less_st]"]},"timeStarted":1473933894902,"user":"Admin2","success":false,"completed":true,"name":"Chef-Client-Run","type":2,"timeEnded":1473933900646}],"serviceIds":[],"blueprintData":{"blueprintName":"54.67.65.90","templateId":"chef_import","iconPath":"../private/img/templateicons/chef_import.png","templateComponents":[]},"credentials":{"username":"ubuntu","pemFileLocation":"/mnt/jenkins/workspace/SC_OpenSource_Backup/server/catdata/catalyst/instance-pemfiles/a6c2aeb9-1480-4099-8136-5591a9fedbda"},"software":[],"chef":{"serverId":"6a178a0f-8c87-4f87-962d-04e508f1c095","chefNodeName":"54.67.65.90"},"hardware":{"platform":"unknown","platformVersion":"unknown","architecture":"unknown","os":"linux","memory":{"total":"unknown","free":"unknown"}},"users":["Admin2"],"appUrls":[],"attributes":[],"runlist":[]},{"_id":"57da6633bddbbdf876986af4","name":"52.53.241.158","orgId":"ca8a9158-0426-4a14-9401-a5539a9dda87","orgName":"RL","bgId":"f8075f04-d224-4940-afea-967b1b8dc951","bgName":"Product","projectId":"895990bc-2dc8-43bf-ab65-d75d8e5f5f07","projectName":"Catalyst","envId":"ffcee46d-3faf-4dd4-a63d-9fcdcbd505dd","environmentName":"RL_EVL","platformId":"52.53.241.158","instanceIP":"52.53.241.158","instanceState":"running","bootStrapStatus":"failed","catUser":"Admin2","__v":0,"isDeleted":false,"tasks":[],"instanceCreatedOn":"2016-09-15T09:13:23.485Z","taskIds":[],"chefClientExecutionIds":[],"actionLogs":[{"_id":"57da6633bddbbdf876986af5","actionData":{"runlist":[]},"timeStarted":1473930803502,"user":"Admin2","success":false,"completed":true,"name":"Bootstrap","type":1,"timeEnded":1473930870676}],"serviceIds":[],"blueprintData":{"blueprintName":"52.53.241.158","templateId":"chef_import","iconPath":"../private/img/templateicons/chef_import.png","templateComponents":[]},"credentials":{"username":"ubuntu","pemFileLocation":"/mnt/jenkins/workspace/SC_OpenSource_Backup/server/catdata/catalyst/instance-pemfiles/301b545f-c068-4b25-9606-74a21d1a1a90"},"software":[],"chef":{"serverId":"6a178a0f-8c87-4f87-962d-04e508f1c095","chefNodeName":"52.53.241.158"},"hardware":{"platform":"unknown","platformVersion":"unknown","architecture":"unknown","os":"linux","memory":{"total":"unknown","free":"unknown"}},"users":["Admin2"],"appUrls":[],"attributes":[],"runlist":[]},{"_id":"57d8f411d87c4a1a0a0875f7","name":"Jboss7","orgId":"ca8a9158-0426-4a14-9401-a5539a9dda87","orgName":"RL","bgId":"f8075f04-d224-4940-afea-967b1b8dc951","bgName":"Product","projectId":"895990bc-2dc8-43bf-ab65-d75d8e5f5f07","projectName":"Catalyst","envId":"ffcee46d-3faf-4dd4-a63d-9fcdcbd505dd","environmentName":"RL_EVL","providerId":"57be97066163a2d013eb6ea0","providerType":"azure","keyPairId":"azure","region":"Southeast Asia","chefNodeName":"D4D-811db03a","platformId":"D4D-811db03a","instanceIP":"52.187.63.155","instanceState":"running","bootStrapStatus":"failed","instanceType":"Basic_A1","catUser":"Admin2","__v":0,"isDeleted":false,"tasks":[],"instanceCreatedOn":"2016-09-14T06:54:09.811Z","taskIds":[],"chefClientExecutionIds":[],"actionLogs":[{"_id":"57d8f411d87c4a1a0a0875f8","actionData":{"runlist":["recipe[jboss7]"]},"timeStarted":1473836049820,"user":"Admin2","success":false,"completed":true,"name":"Bootstrap","type":1,"timeEnded":1473836508851}],"serviceIds":[],"blueprintData":{"blueprintId":"57be9be564a8e6f5412707c7","blueprintName":"Jboss7","templateId":"jboss","templateType":"chef","iconPath":"/d4dMasters/image/776b045b-db9b-4e3e-a6a1-7c211b293ecc__templatesicon__jboss-icon.png","templateComponents":[]},"credentials":{"username":"azureuser","password":"Ih7qv/gGQVdBEQ+ZSQYtdg=="},"software":[],"chef":{"serverId":"6a178a0f-8c87-4f87-962d-04e508f1c095","chefNodeName":"D4D-811db03a"},"hardware":{"platform":"azure","platformVersion":"unknown","architecture":"unknown","os":"linux","memory":{"total":"unknown","free":"unknown"}},"users":[],"appUrls":[],"attributes":[],"runlist":["recipe[jboss7]"]},{"_id":"57d76980d87c4a1a0a06b749","name":"54.193.50.138","orgId":"ca8a9158-0426-4a14-9401-a5539a9dda87","orgName":"RL","bgId":"f8075f04-d224-4940-afea-967b1b8dc951","bgName":"Product","projectId":"895990bc-2dc8-43bf-ab65-d75d8e5f5f07","projectName":"Catalyst","envId":"ffcee46d-3faf-4dd4-a63d-9fcdcbd505dd","environmentName":"RL_EVL","platformId":"54.193.50.138","instanceIP":"54.193.50.138","instanceState":"running","bootStrapStatus":"success","catUser":"Admin2","__v":0,"isDeleted":false,"tasks":[],"instanceCreatedOn":"2016-09-13T02:50:40.703Z","taskIds":[],"chefClientExecutionIds":[],"actionLogs":[{"_id":"57d76980d87c4a1a0a06b74a","actionData":{"runlist":[]},"timeStarted":1473735040718,"user":"Admin2","success":true,"completed":true,"name":"Bootstrap","type":1,"timeEnded":1473735591414},{"_id":"57d76c45d87c4a1a0a06bada","actionData":{"runlist":["recipe[tomcat-all-rl]","recipe[deploy_war]"]},"timeStarted":1473735749631,"user":"Admin2","success":true,"completed":true,"name":"Chef-Client-Run","type":2,"timeEnded":1473735816311},{"_id":"57d76f6ed87c4a1a0a06ca27","actionData":{"runlist":["recipe[tomcat-all-rl]","recipe[deploy_war]"]},"timeStarted":1473736558496,"user":"Admin2","success":true,"completed":true,"name":"Chef-Client-Run","type":2,"timeEnded":1473736576953}],"serviceIds":[],"docker":{"dockerEngineStatus":"","dockerEngineUrl":""},"blueprintData":{"blueprintName":"54.193.50.138","templateId":"chef_import","iconPath":"../private/img/templateicons/chef_import.png","templateComponents":[]},"credentials":{"username":"ubuntu","pemFileLocation":"/mnt/jenkins/workspace/SC_OpenSource_Backup/server/catdata/catalyst/instance-pemfiles/7c4745ce-8d89-42c5-a8e3-bb3bfff8ac02"},"software":[],"chef":{"serverId":"6a178a0f-8c87-4f87-962d-04e508f1c095","chefNodeName":"54.193.50.138"},"hardware":{"platform":"ubuntu","platformVersion":"14.04","architecture":"x86_64","os":"linux","memory":{"total":"4046852kB","free":"3084972kB"}},"users":["Admin2"],"appUrls":[],"attributes":[{"name":"Java Flavour","jsonObj":{"java":{"install_flavor":"oracle"}},"_id":"57d76f80d87c4a1a0a06cca8"},{"name":"Java JDK Version","jsonObj":{"java":{"jdk_version":"7"}},"_id":"57d76f80d87c4a1a0a06cca7"},{"name":"Oracle Download Terms","jsonObj":{"java":{"oracle":{"accept_oracle_download_terms":"true"}}},"_id":"57d76f80d87c4a1a0a06cca6"},{"name":"Tomcat User","jsonObj":{"tomcat-all-rl":{"user":"tomcat"}},"_id":"57d76f80d87c4a1a0a06cca5"},{"name":"Tomcat Group","jsonObj":{"tomcat-all-rl":{"group":"tomcat"}},"_id":"57d76f80d87c4a1a0a06cca4"},{"name":"Tomcat Version","jsonObj":{"tomcat-all-rl":{"version":"7.0.53"}},"_id":"57d76f80d87c4a1a0a06cca3"},{"name":"Tomcat Home","jsonObj":{"tomcat-all-rl":{"tomcat_home":"/opt/tomcat7"}},"_id":"57d76f80d87c4a1a0a06cca2"},{"name":"Set Tomcat Environment","jsonObj":{"tomcat-all-rl":{"set_etc_environment":"true"}},"_id":"57d76f80d87c4a1a0a06cca1"},{"name":"Tomcat Shutdown Port","jsonObj":{"tomcat-all-rl":{"shutdown_port":"8005"}},"_id":"57d76f80d87c4a1a0a06cca0"},{"name":"Tomcat Running Port","jsonObj":{"tomcat-all-rl":{"port":"8080"}},"_id":"57d76f80d87c4a1a0a06cc9f"},{"name":"Tomcat Max Threads","jsonObj":{"tomcat-all-rl":{"max_threads":"100"}},"_id":"57d76f80d87c4a1a0a06cc9e"},{"name":"Tomcat Min Spare Threads","jsonObj":{"tomcat-all-rl":{"min_spare_threads":"10"}},"_id":"57d76f80d87c4a1a0a06cc9d"},{"name":"Tomcat Java Opts","jsonObj":{"tomcat-all-rl":{"java_opts":"-d64 -server -Djava.awt.headless=true -XX:PermSize=64m -XX:MaxPermSize=256m"}},"_id":"57d76f80d87c4a1a0a06cc9c"},{"name":"Application version","jsonObj":{"rlcatalyst":{"version":"1.2"}},"_id":"57d76f80d87c4a1a0a06cc9b"},{"name":"Node Public IP","jsonObj":{"rlcatalyst":{"applicationNodeIP":"54.193.50.138"}},"_id":"57d76f80d87c4a1a0a06cc9a"},{"name":"Callback URL","jsonObj":{"deploy_war":{"catalystCallbackUrl":"https://supercatalyst.rlcatalyst.com/app/deploy"}},"_id":"57d76f80d87c4a1a0a06cc99"}],"runlist":["recipe[tomcat-all-rl]","recipe[deploy_war]"]},{"_id":"57d65a5ed87c4a1a0a05a64a","name":"54.183.5.194","orgId":"ca8a9158-0426-4a14-9401-a5539a9dda87","orgName":"RL","bgId":"f8075f04-d224-4940-afea-967b1b8dc951","bgName":"Product","projectId":"895990bc-2dc8-43bf-ab65-d75d8e5f5f07","projectName":"Catalyst","envId":"ffcee46d-3faf-4dd4-a63d-9fcdcbd505dd","environmentName":"RL_EVL","platformId":"54.183.5.194","instanceIP":"54.183.5.194","instanceState":"running","bootStrapStatus":"success","catUser":"Admin2","__v":0,"isDeleted":false,"tasks":[],"instanceCreatedOn":"2016-09-12T07:33:50.739Z","taskIds":[],"chefClientExecutionIds":[],"actionLogs":[{"_id":"57d65a5ed87c4a1a0a05a64b","actionData":{"runlist":[]},"timeStarted":1473665630748,"user":"Admin2","success":true,"completed":true,"name":"Bootstrap","type":1,"timeEnded":1473666184472}],"serviceIds":[],"blueprintData":{"blueprintName":"54.183.5.194","templateId":"chef_import","iconPath":"../private/img/templateicons/chef_import.png","templateComponents":[]},"credentials":{"username":"ubuntu","pemFileLocation":"/mnt/jenkins/workspace/SC_OpenSource_Backup/server/catdata/catalyst/instance-pemfiles/da24b050-5622-44e6-908a-4a06eeb32a2f"},"software":[],"chef":{"serverId":"6a178a0f-8c87-4f87-962d-04e508f1c095","chefNodeName":"54.183.5.194"},"hardware":{"platform":"ubuntu","platformVersion":"14.04","architecture":"x86_64","os":"linux","memory":{"total":"4046852kB","free":"3431376kB"}},"users":["Admin2"],"appUrls":[],"attributes":[],"runlist":[]},{"_id":"57d656f6d87c4a1a0a05a1ce","name":"54.67.47.158","orgId":"ca8a9158-0426-4a14-9401-a5539a9dda87","orgName":"RL","bgId":"f8075f04-d224-4940-afea-967b1b8dc951","bgName":"Product","projectId":"895990bc-2dc8-43bf-ab65-d75d8e5f5f07","projectName":"Catalyst","envId":"ffcee46d-3faf-4dd4-a63d-9fcdcbd505dd","environmentName":"RL_EVL","platformId":"54.67.47.158","instanceIP":"54.67.47.158","instanceState":"running","bootStrapStatus":"success","catUser":"Admin2","__v":0,"isDeleted":false,"tasks":[],"instanceCreatedOn":"2016-09-12T07:19:18.820Z","taskIds":[],"chefClientExecutionIds":[],"actionLogs":[{"_id":"57d656f6d87c4a1a0a05a1cf","actionData":{"runlist":[]},"timeStarted":1473664758829,"user":"Admin2","success":true,"completed":true,"name":"Bootstrap","type":1,"timeEnded":1473665317341}],"serviceIds":[],"blueprintData":{"blueprintName":"54.67.47.158","templateId":"chef_import","iconPath":"../private/img/templateicons/chef_import.png","templateComponents":[]},"credentials":{"username":"ubuntu","pemFileLocation":"/mnt/jenkins/workspace/SC_OpenSource_Backup/server/catdata/catalyst/instance-pemfiles/c6a16b44-a3bd-4edc-9cd3-76e075c16ef3"},"software":[],"chef":{"serverId":"6a178a0f-8c87-4f87-962d-04e508f1c095","chefNodeName":"54.67.47.158"},"hardware":{"platform":"ubuntu","platformVersion":"14.04","architecture":"x86_64","os":"linux","memory":{"total":"4046852kB","free":"3430636kB"}},"users":["Admin2"],"appUrls":[],"attributes":[],"runlist":[]},{"_id":"57d63dc9d87c4a1a0a056eea","name":"54.67.108.26","orgId":"ca8a9158-0426-4a14-9401-a5539a9dda87","orgName":"RL","bgId":"f8075f04-d224-4940-afea-967b1b8dc951","bgName":"Product","projectId":"895990bc-2dc8-43bf-ab65-d75d8e5f5f07","projectName":"Catalyst","envId":"ffcee46d-3faf-4dd4-a63d-9fcdcbd505dd","environmentName":"RL_EVL","platformId":"54.67.108.26","instanceIP":"54.67.108.26","instanceState":"running","bootStrapStatus":"success","catUser":"Admin2","__v":0,"isDeleted":false,"tasks":[],"instanceCreatedOn":"2016-09-12T05:31:53.075Z","taskIds":[],"chefClientExecutionIds":[],"actionLogs":[{"_id":"57d63dc9d87c4a1a0a056eeb","actionData":{"runlist":[]},"timeStarted":1473658313084,"user":"Admin2","success":true,"completed":true,"name":"Bootstrap","type":1,"timeEnded":1473658863893},{"_id":"57d64007d87c4a1a0a0571f3","actionData":{"runlist":["recipe[apache2]"]},"timeStarted":1473658887538,"user":"Admin2","success":true,"completed":true,"name":"Chef-Client-Run","type":2,"timeEnded":1473658987250},{"_id":"57d6430bd87c4a1a0a058c90","actionData":{"login-name":"ubuntu"},"timeStarted":1473659659341,"user":"Admin2","success":true,"completed":true,"name":"SSH-Shell","type":8,"timeEnded":1473659659666}],"serviceIds":[],"docker":{"dockerEngineStatus":"","dockerEngineUrl":""},"blueprintData":{"blueprintName":"54.67.108.26","templateId":"chef_import","iconPath":"../private/img/templateicons/chef_import.png","templateComponents":[]},"credentials":{"username":"ubuntu","pemFileLocation":"/mnt/jenkins/workspace/SC_OpenSource_Backup/server/catdata/catalyst/instance-pemfiles/bbd71aca-d82c-4803-8a5e-aa20a6651286"},"software":[],"chef":{"serverId":"6a178a0f-8c87-4f87-962d-04e508f1c095","chefNodeName":"54.67.108.26"},"hardware":{"platform":"ubuntu","platformVersion":"14.04","architecture":"x86_64","os":"linux","memory":{"total":"4046852kB","free":"3431004kB"}},"users":["Admin2"],"appUrls":[],"attributes":[],"runlist":["recipe[apache2]"]}],"metaData":{"totalRecords":19,"pageSize":10,"page":1,"totalPages":2,"sortBy":"instanceCreatedOn","sortOrder":"desc"}}